…
We create a separate table computing the average of the variables by activity and by subject

``` r
Avg_table<-All_table%>%group_by(activity,subjects)%>%summarize_all(mean)
```

    ## # A tibble: 180 x 68
    ## # Groups:   activity [?]
    ##    activity subjects tBodyAcc.mean...X tBodyAcc.mean...Y tBodyAcc.mean...Z
    ##      <fctr>   <fctr>             <dbl>             <dbl>             <dbl>
    ##  1  WALKING        1         0.2773308       -0.01738382        -0.1111481
    ##  2  WALKING        2         0.2764266       -0.01859492        -0.1055004
    ##  3  WALKING        3         0.2755675       -0.01717678        -0.1126749
    ##  4  WALKING        4         0.2785820       -0.01483995        -0.1114031
    ##  5  WALKING        5         0.2778423       -0.01728503        -0.1077418
    ##  6  WALKING        6         0.2836589       -0.01689542        -0.1103032
    ##  7  WALKING        7         0.2755930       -0.01865367        -0.1109122
    ##  8  WALKING        8         0.2746863       -0.01866289        -0.1072521
    ##  9  WALKING        9         0.2785028       -0.01808920        -0.1108205
    ## 10  WALKING       10         0.2785741       -0.01702235        -0.1090575
    ## # ... with 170 more rows, and 63 more variables: tBodyAcc.std...X <dbl>,
    ## #   tBodyAcc.std...Y <dbl>, tBodyAcc.std...Z <dbl>,
    ## #   tGravityAcc.mean...X <dbl>, tGravityAcc.mean...Y <dbl>,
    ## #   tGravityAcc.mean...Z <dbl>, tGravityAcc.std...X <dbl>,
    ## #   tGravityAcc.std...Y <dbl>, tGravityAcc.std...Z <dbl>,
    ## #   tBodyAccJerk.mean...X <dbl>, tBodyAccJerk.mean...Y <dbl>,
    ## #   tBodyAccJerk.mean...Z <dbl>, tBodyAccJerk.std...X <dbl>,
    ## #   tBodyAccJerk.std...Y <dbl>, tBodyAccJerk.std...Z <dbl>,
    ## #   tBodyGyro.mean...X <dbl>, tBodyGyro.mean...Y <dbl>,
…
